…
Observations are the level of items in orders by user. There are user /
order variables – user ID, order ID, order day, and order hour. There
are also item variables – name, aisle, department, and some numeric
codes.

How many aisles, and which are most items from?

``` r
instacart %>% 
    count(aisle) %>% 
    arrange(desc(n))
```

    ## # A tibble: 134 x 2
    ##    aisle                              n
    ##    <chr>                          <int>
    ##  1 fresh vegetables              150609
    ##  2 fresh fruits                  150473
    ##  3 packaged vegetables fruits     78493
    ##  4 yogurt                         55240
    ##  5 packaged cheese                41699
    ##  6 water seltzer sparkling water  36617
    ##  7 milk                           32644
    ##  8 chips pretzels                 31269
    ##  9 soy lactosefree                26240
    ## 10 bread                          23635
    ## # ... with 124 more rows
…
Let’s see what’s going on with snowfall:

``` r
ny_weather_df %>%
  count(month, year, snow)%>%
  group_by(month, year)
```

    ## # A tibble: 14,722 x 4
    ## # Groups:   month, year [360]
    ##    month year   snow     n
    ##    <chr> <fct> <int> <int>
    ##  1 Apr   1981      0  6964
    ##  2 Apr   1981      3     8
    ##  3 Apr   1981      5     8
    ##  4 Apr   1981      8     5
    ##  5 Apr   1981     10     5
    ##  6 Apr   1981     13    19
    ##  7 Apr   1981     15     1
    ##  8 Apr   1981     20     2
    ##  9 Apr   1981     23     2
    ## 10 Apr   1981     25    14
    ## # ... with 14,712 more rows
…
